[
{
  "model": "courses.subject",
  "pk": 1,
  "fields": {
    "title": "Gujarati",
    "slug": "gujarati"
  }
},
{
  "model": "courses.subject",
  "pk": 2,
  "fields": {
    "title": "Angreji",
    "slug": "angreji"
  }
},
{
  "model": "courses.subject",
  "pk": 3,
  "fields": {
    "title": "Hindi",
    "slug": "hindi"
  }
},
{
  "model": "courses.subject",
  "pk": 4,
  "fields": {
    "title": "Kathiwadi",
    "slug": "kathiwadi"
  }
},
{
  "model": "courses.subject",
  "pk": 5,
  "fields": {
    "title": "Punjabi",
    "slug": "punjabi"
  }
},
{
  "model": "courses.subject",
  "pk": 6,
  "fields": {
    "title": "Chinese",
    "slug": "chinese"
  }
}
]
